output_waveforms/output_MAC_tb.vcd
$date
	Mon Oct 21 01:06:26 2019
$end
$version
	Icarus Verilog
$end
$timescale
	1ps
$end
$scope module output_MAC_tb $end
$var reg 1 ! clk $end
$upscope $end
$scope module output_MAC_tb $end
$var reg 1 " areset $end
$upscope $end
$scope module output_MAC_tb $end
$var wire 1 # data_valid $end
$upscope $end
$scope module output_MAC_tb $end
$var wire 8 $ data_tx [7:0] $end
$upscope $end
$scope module output_MAC_tb $end
$var reg 1 % data_ack_tx $end
$upscope $end
$scope module output_MAC_tb $end
$scope module out0 $end
$var reg 4 & state [3:0] $end
$upscope $end
$upscope $end
$enddefinitions $end
#0
$dumpvars
b0 &
0%
b0 $
0#
1"
0!
$end
#5000
1!
#10000
0!
#15000
1!
#20000
0!
0"
#25000
1!
#30000
0!
#35000
b1 &
1!
#40000
0!
#45000
b1 $
1#
1!
#50000
0!
#55000
1!
#60000
0!
#65000
1!
#70000
0!
1%
#75000
1!
#80000
0!
0%
#85000
b100011 $
1!
#90000
0!
#95000
b1000101 $
1!
#100000
0!
#105000
b1100111 $
1!
#110000
0!
#115000
b10001001 $
1!
#120000
0!
#125000
b10 &
b10101011 $
1!
#130000
0!
#135000
b10111010 $
1!
#140000
0!
#145000
b10011000 $
1!
#150000
0!
#155000
b1110110 $
1!
#160000
0!
#165000
b1010100 $
1!
#170000
0!
#175000
b110010 $
1!
#180000
0!
#185000
b11 &
b10000 $
1!
#190000
0!
#195000
b1000 $
1!
#200000
0!
#205000
b100 &
b110 $
1!
#210000
0!
#215000
b0 $
1!
#220000
0!
#225000
b101 &
b1 $
1!
#230000
0!
#235000
b1000 $
1!
#240000
0!
#245000
b110 &
b0 $
1!
#250000
0!
#255000
b110 $
b111 &
1!
#260000
0!
#265000
b1000 &
b100 $
1!
#270000
0!
#275000
b0 $
1!
#280000
0!
#285000
b1001 &
b10 $
1!
#290000
0!
#295000
b10111010 $
1!
#300000
0!
#305000
b10011000 $
1!
#310000
0!
#315000
b1110110 $
1!
#320000
0!
#325000
b1010100 $
1!
#330000
0!
#335000
b110010 $
1!
#340000
0!
#345000
b1010 &
b10000 $
1!
#350000
0!
#355000
b10101010 $
1!
#360000
0!
#365000
1!
#370000
0!
#375000
1!
#380000
0!
#385000
b1011 &
1!
#390000
0!
#395000
b1 $
1!
#400000
0!
#405000
b100011 $
1!
#410000
0!
#415000
b1000101 $
1!
#420000
0!
#425000
b1100111 $
1!
#430000
0!
#435000
b10001001 $
1!
#440000
0!
#445000
b1100 &
b10101011 $
1!
#450000
0!
#455000
b1010101 $
1!
#460000
0!
#465000
1!
#470000
0!
#475000
1!
#480000
0!
#485000
b1101 &
1!
#490000
0!
#495000
b0 $
0#
b0 &
1!
